Strawberry EDA
…
This was actually something I had worked on before our class where you made the perfect table. I hadn’t thought to extraact the data ranges and print the lower and upper in seperate columns and so i was struggling to visualize in a ascending order and being able to fit the long x values on the axis.

income_area_data <- census_ca_fl %>% 
  filter(
    Income_Category == "INCOME",
    Category == "NET CASH FARM",
    Metric == "MEASURED IN $",
    str_detect(Domain_Category, "AREA OPERATED")
  ) %>%
  mutate(Value = as.numeric(Value))

print(income_area_data)

# A tibble: 48 × 13
    Year State      Income_Category Net_Cash_Income INCOME Category Item  Metric
   <dbl> <chr>      <chr>           <chr>           <chr>  <chr>    <chr> <chr> 
 1  2022 California INCOME          NET CASH FARM   INCOME NET CAS… OF O… MEASU…
 2  2022 California INCOME          NET CASH FARM   INCOME NET CAS… OF O… MEASU…
 3  2022 California INCOME          NET CASH FARM   INCOME NET CAS… OF O… MEASU…
 4  2022 California INCOME          NET CASH FARM   INCOME NET CAS… OF O… MEASU…
 5  2022 California INCOME          NET CASH FARM   INCOME NET CAS… OF O… MEASU…
 6  2022 California INCOME          NET CASH FARM   INCOME NET CAS… OF O… MEASU…
 7  2022 California INCOME          NET CASH FARM   INCOME NET CAS… OF O… MEASU…
 8  2022 California INCOME          NET CASH FARM   INCOME NET CAS… OF O… MEASU…
 9  2022 California INCOME          NET CASH FARM   INCOME NET CAS… OF O… MEASU…
10  2022 California INCOME          NET CASH FARM   INCOME NET CAS… OF O… MEASU…
# ℹ 38 more rows
# ℹ 5 more variables: Domain <chr>, Domain_Category <chr>, Value <dbl>,
#   CV_Percent <dbl>, Standard_Deviation <dbl>
…
top_fungicides_fl <- chem_fl_survey %>%
  filter(grepl("FUNGICIDE", Domain, ignore.case = TRUE)) %>%  
  group_by(Domain, Chemical_Name) %>%
  summarise(Total_Usage = sum(Chemical_Value, na.rm = TRUE), .groups = "drop") %>%
  arrange(desc(Total_Usage)) %>%
  slice_max(Total_Usage, n = 15)
top_fungicides_fl <- top_fungicides_fl %>%
  filter(Chemical_Name != "TOTAL")
print(top_fungicides_fl)

# A tibble: 37 × 3
   Domain              Chemical_Name                       Total_Usage
   <chr>               <chr>                                     <dbl>
 1 CHEMICAL, FUNGICIDE CAPTAN = 81301                          279309.
 2 CHEMICAL, FUNGICIDE THIRAM = 79801                          254679.
 3 CHEMICAL, FUNGICIDE CYPRODINIL = 288202                      15364.
 4 CHEMICAL, FUNGICIDE FLUDIOXONIL = 71503                      10765.
 5 CHEMICAL, FUNGICIDE AZOXYSTROBIN = 128810                      105.
 6 CHEMICAL, FUNGICIDE BACILLUS AMYLOLIQUEFAC F727 = 16489          0 
 7 CHEMICAL, FUNGICIDE BACILLUS SUBTILIS = 6479                     0 
 8 CHEMICAL, FUNGICIDE BORAX DECAHYDRATE = 11102                    0 
 9 CHEMICAL, FUNGICIDE BOSCALID = 128008                            0 
10 CHEMICAL, FUNGICIDE CHLOROTHALONIL = 81901                       0 
# ℹ 27 more rows
…
